{
    "pose_backends": [
        {
            "name": "posenet",
            "params": {
                "base_model": "resnet50",
                "device_id": 0,
                "draw_bounding_boxes": false,
                "draw_skeleton_edges": true,
                "input_resolution": [
                    250,
                    250
                ],
                "min_keypoint_confidence": 0.1,
                "min_pose_confidence": 0.15,
                "multi_pose_detection": true,
                "output_stride": 32
            }
        }
    ],
    "cameras": {
        "input_paths": [
            "livepose/tests/data/mosaico.png"
        ],
        "flip_camera": false,
        "intrinsics": {}
    },
    "filters": {
        "skeletons": {}
    },
    "outputs": {
        "osc": {
            "destinations": {
                "localhost": 9000
            }
        }
    }
}
